<?xml version="1.0" encoding="utf-8"?>
<!-- Generator: Adobe Illustrator 16.0.0, SVG Export Plug-In . SVG Version: 6.00 Build 0)  -->
<!DOCTYPE svg PUBLIC "-//W3C//DTD SVG 1.1//EN" "http://www.w3.org/Graphics/SVG/1.1/DTD/svg11.dtd">
<svg version="1.1" id="Capa_1" xmlns="http://www.w3.org/2000/svg" xmlns:xlink="http://www.w3.org/1999/xlink" x="0px" y="0px"
	 width="77px" height="62.999px" viewBox="0 0 77 62.999" enable-background="new 0 0 77 62.999" xml:space="preserve">
<g>
	<g>
		<path fill="#ccc" d="M29.014,17.63V0H0.424v59.71h48.59V17.63H29.014z M11.884,37.75h-4.65v-4.649h4.65V37.75z M11.884,28.54
			h-4.65v-4.649h4.65V28.54z M11.884,19.32h-4.65v-4.65h4.65V19.32z M11.884,10.11h-4.65V5.46h4.65V10.11z M22.154,37.75h-4.65
			v-4.649h4.65V37.75z M22.154,28.54h-4.65v-4.649h4.65V28.54z M22.154,19.32h-4.65v-4.65h4.65V19.32z M22.154,10.11h-4.65V5.46
			h4.65V10.11z M32.434,37.75h-4.649v-4.649h4.649V37.75z M32.434,28.54h-4.649v-4.649h4.649V28.54z M42.704,37.75h-4.65v-4.649
			h4.65V37.75z M42.704,28.54h-4.65v-4.649h4.65V28.54z"/>
	</g>
	<g>
		<path fill="#ccc" d="M71.813,42.772h-3.462v-0.436c0-1.176-0.938-2.137-2.084-2.137h-3.219c-1.146,0-2.084,0.961-2.084,2.137
			v0.436h-3.378c-2.619,0-4.763,2.163-4.763,4.806v1.236c2.263,1.583,6.145,3.44,11.903,3.44c5.533,0,9.45-1.732,11.849-3.28v-1.396
			C76.576,44.936,74.433,42.772,71.813,42.772z M62.527,42.337c0-0.291,0.238-0.535,0.521-0.535h3.22
			c0.282,0,0.521,0.244,0.521,0.535v0.436h-4.261V42.337z"/>
		<path fill="#ccc" d="M68.422,55.938c0,1.326-1.05,1.884-2.344,1.884h-2.632c-1.294,0-2.343-0.558-2.343-1.884
			c0-0.674,0.272-1.281,0.71-1.717c-3.825-0.404-6.78-1.57-8.989-2.886v6.858c0,2.644,2.144,4.806,4.763,4.806h14.227
			c2.619,0,4.763-2.162,4.763-4.806v-6.746c-2.245,1.26-5.175,2.368-8.872,2.767C68.145,54.65,68.422,55.26,68.422,55.938z"/>
		<path fill="#ccc" d="M65.494,56.481c0.577,0,1.046-0.479,1.046-1.071s-0.469-1.072-1.046-1.072h-1.589
			c-0.576,0-1.045,0.48-1.045,1.072s0.469,1.071,1.045,1.071H65.494z"/>
	</g>
</g>
</svg>
