<?xml version="1.0" encoding="utf-8"?>
<!-- Generator: Adobe Illustrator 16.0.0, SVG Export Plug-In . SVG Version: 6.00 Build 0)  -->
<!DOCTYPE svg PUBLIC "-//W3C//DTD SVG 1.1//EN" "http://www.w3.org/Graphics/SVG/1.1/DTD/svg11.dtd">
<svg version="1.1" id="Capa_1" xmlns="http://www.w3.org/2000/svg" xmlns:xlink="http://www.w3.org/1999/xlink" x="0px" y="0px"
	 width="65px" height="54px" viewBox="0 0 65 54" enable-background="new 0 0 65 54" xml:space="preserve">
<g>
	<g>
		<path fill="#049EE0" d="M25.759,9.291V0.17H0.089v50.37h37.25V9.291H25.759z M10.769,28.581H6.119v-4.649h4.649V28.581z
			 M10.769,19.371H6.119v-4.649h4.649V19.371z M10.769,10.151H6.119V5.5h4.649V10.151z M21.049,28.581h-4.65v-4.649h4.65V28.581z
			 M21.049,19.371h-4.65v-4.649h4.65V19.371z M21.049,10.151h-4.65V5.5h4.65V10.151z M31.329,28.581h-4.65v-4.649h4.65V28.581z
			 M31.329,19.371h-4.65v-4.649h4.65V19.371z"/>
	</g>
	<g>
		<path fill="#049EE0" d="M60.148,33.603h-3.462v-0.436c0-1.176-0.938-2.137-2.084-2.137h-3.219c-1.146,0-2.084,0.961-2.084,2.137
			v0.436h-3.378c-2.619,0-4.763,2.163-4.763,4.806v1.236c2.263,1.583,6.145,3.44,11.903,3.44c5.533,0,9.45-1.732,11.849-3.28v-1.396
			C64.911,35.766,62.768,33.603,60.148,33.603z M50.862,33.167c0-0.291,0.238-0.535,0.521-0.535h3.22
			c0.282,0,0.521,0.244,0.521,0.535v0.436h-4.261V33.167z"/>
		<path fill="#049EE0" d="M56.757,46.768c0,1.326-1.05,1.884-2.344,1.884h-2.632c-1.294,0-2.343-0.558-2.343-1.884
			c0-0.674,0.272-1.281,0.71-1.717c-3.825-0.404-6.78-1.57-8.989-2.886v6.858c0,2.644,2.144,4.806,4.763,4.806h14.227
			c2.619,0,4.763-2.162,4.763-4.806v-6.746c-2.245,1.26-5.175,2.368-8.872,2.767C56.479,45.481,56.757,46.09,56.757,46.768z"/>
		<path fill="#049EE0" d="M53.829,47.312c0.577,0,1.046-0.479,1.046-1.071s-0.469-1.072-1.046-1.072H52.24
			c-0.576,0-1.045,0.48-1.045,1.072s0.469,1.071,1.045,1.071H53.829z"/>
	</g>
</g>
</svg>
