<?xml version="1.0" encoding="utf-8"?>
<!-- Generator: Adobe Illustrator 16.0.0, SVG Export Plug-In . SVG Version: 6.00 Build 0)  -->
<!DOCTYPE svg PUBLIC "-//W3C//DTD SVG 1.1//EN" "http://www.w3.org/Graphics/SVG/1.1/DTD/svg11.dtd">
<svg version="1.1" id="Capa_1" xmlns="http://www.w3.org/2000/svg" xmlns:xlink="http://www.w3.org/1999/xlink" x="0px" y="0px"
	 width="33px" height="26px" viewBox="0 0 33 26" enable-background="new 0 0 33 26" xml:space="preserve">
<g id="Pasar_jornada">
	<g>
		<path fill="#4F453C" d="M27.742,26H5.258c-0.605,0-1.095-0.491-1.095-1.096V5.921c0-0.604,0.49-1.095,1.095-1.095h22.483
			c0.605,0,1.096,0.49,1.096,1.095v18.983C28.837,25.509,28.347,26,27.742,26L27.742,26z M6.354,23.81h20.293V7.017H6.354V23.81
			L6.354,23.81z"/>
	</g>
	<g>
		<path fill="#4F453C" d="M22.542,8.841c-0.605,0-1.096-0.491-1.096-1.095V4.095C21.447,3.49,21.937,3,22.542,3
			s1.096,0.49,1.096,1.095v3.651C23.638,8.35,23.148,8.841,22.542,8.841L22.542,8.841z"/>
	</g>
	<g>
		<path fill="#4F453C" d="M10.58,8.841c-0.605,0-1.095-0.491-1.095-1.095V4.095C9.484,3.49,9.975,3,10.58,3
			c0.605,0,1.095,0.49,1.095,1.095v3.651C11.675,8.35,11.185,8.841,10.58,8.841L10.58,8.841z"/>
	</g>
	<g>
		<path fill="#4F453C" d="M27.68,11.385H5.412c-0.304,0-0.547-0.245-0.547-0.548s0.244-0.548,0.547-0.548H27.68
			c0.304,0,0.548,0.245,0.548,0.548S27.984,11.385,27.68,11.385L27.68,11.385z"/>
	</g>
	<polygon fill="#4F453C" points="11.477,14.333 9.353,14.333 9.353,16.457 11.477,16.457 11.477,14.333 	"/>
	<polygon fill="#4F453C" points="15.52,14.333 13.396,14.333 13.396,16.457 15.52,16.457 15.52,14.333 	"/>
	<polygon fill="#4F453C" points="19.564,14.333 17.438,14.333 17.438,16.457 19.564,16.457 19.564,14.333 	"/>
	<polygon fill="#4F453C" points="23.607,14.333 21.48,14.333 21.48,16.457 23.607,16.457 23.607,14.333 	"/>
	<polygon fill="#4F453C" points="11.477,18.842 9.353,18.842 9.353,20.966 11.477,20.966 11.477,18.842 	"/>
	<polygon fill="#4F453C" points="15.52,18.842 13.396,18.842 13.396,20.966 15.52,20.966 15.52,18.842 	"/>
	<polygon fill="#4F453C" points="19.564,18.842 17.438,18.842 17.438,20.966 19.564,20.966 19.564,18.842 	"/>
	<polygon fill="#4F453C" points="23.607,18.842 21.48,18.842 21.48,20.966 23.607,20.966 23.607,18.842 	"/>
</g>
<g>
</g>
<g>
</g>
<g>
</g>
<g>
</g>
<g>
</g>
<g>
</g>
</svg>
