<?xml version="1.0" encoding="utf-8"?>
<!-- Generator: Adobe Illustrator 16.0.0, SVG Export Plug-In . SVG Version: 6.00 Build 0)  -->
<!DOCTYPE svg PUBLIC "-//W3C//DTD SVG 1.1//EN" "http://www.w3.org/Graphics/SVG/1.1/DTD/svg11.dtd">
<svg version="1.1" id="Capa_1" xmlns="http://www.w3.org/2000/svg" xmlns:xlink="http://www.w3.org/1999/xlink" x="0px" y="0px"
	 width="33px" height="26px" viewBox="0 0 33 26" enable-background="new 0 0 33 26" xml:space="preserve">
<g id="RRHH">
	<g>
		<g>
			<path fill="#fff" d="M9.129,13.618c-2.646,0-4.799-2.168-4.799-4.833s2.152-4.832,4.799-4.832s4.799,2.167,4.799,4.832
				S11.775,13.618,9.129,13.618L9.129,13.618z M9.129,5.749c-1.543,0-2.799,1.362-2.799,3.036c0,1.675,1.256,3.036,2.799,3.036
				s2.799-1.361,2.799-3.036C11.928,7.111,10.672,5.749,9.129,5.749L9.129,5.749z"/>
		</g>
		<g>
			<path fill="#fff" d="M16.361,26H1.73c-0.525,0-0.961-0.407-0.998-0.93L0.41,20.35c-0.116-1.737,1.233-3.74,2.946-4.374
				c3.675-1.316,7.714-1.312,11.369-0.003c1.727,0.636,3.076,2.64,2.953,4.38l-0.319,4.716C17.323,25.593,16.888,26,16.361,26
				L16.361,26z M2.664,24.001h12.763l0.257-3.785c0.055-0.779-0.665-2.004-1.641-2.363c-3.204-1.146-6.783-1.15-10.003,0.002
				c-0.964,0.357-1.686,1.585-1.634,2.361L2.664,24.001L2.664,24.001z"/>
		</g>
	</g>
	<g>
		<path fill="#fff" d="M26.086,14.683c2.062,0,3.739-1.659,3.739-3.698c0-2.04-1.678-3.7-3.739-3.7s-3.739,1.66-3.739,3.7
			C22.347,13.023,24.025,14.683,26.086,14.683z M26.086,8.986c1.028,0,1.864,0.896,1.864,1.998c0,1.101-0.836,1.996-1.864,1.996
			s-1.864-0.896-1.864-1.996C24.222,9.883,25.058,8.986,26.086,8.986z"/>
		<path fill="#fff" d="M30.281,16.718c-2.729-0.959-5.777-0.961-8.52,0.003c-1.34,0.486-2.396,2.029-2.305,3.368l0.238,3.418
			c0.035,0.482,0.446,0.86,0.936,0.86h10.789c0.491,0,0.902-0.379,0.936-0.863l0.236-3.411
			C32.687,18.751,31.63,17.205,30.281,16.718z M30.72,19.965l-0.176,2.553h-9.039l-0.177-2.553
			c-0.034-0.489,0.454-1.282,1.071-1.509c2.316-0.813,4.934-0.811,7.242-0.002C30.265,18.681,30.755,19.474,30.72,19.965z"/>
	</g>
</g>
</svg>
