<?xml version="1.0" encoding="utf-8"?>
<!-- Generator: Adobe Illustrator 16.0.0, SVG Export Plug-In . SVG Version: 6.00 Build 0)  -->
<!DOCTYPE svg PUBLIC "-//W3C//DTD SVG 1.1//EN" "http://www.w3.org/Graphics/SVG/1.1/DTD/svg11.dtd">
<svg version="1.1" id="icons" xmlns="http://www.w3.org/2000/svg" xmlns:xlink="http://www.w3.org/1999/xlink" x="0px" y="0px"
	 width="89.5px" height="82px" viewBox="0 0 89.5 82" enable-background="new 0 0 89.5 82" xml:space="preserve">
<g id="ICONO_x5F_6_MESES">
	<g>
		<path fill="#FB0D1B" d="M55.891,13.64c0-2.757-2.244-5-5-5H40.47l-1.707-2.986l-0.17-0.308c-0.91-1.652-2.045-3.706-4.703-3.706
			h-10c-2.79,0-3.989,2.311-4.868,4.004L17.31,8.64H6.89c-2.757,0-5,2.243-5,5v13c0,1.136,0.381,2.248,1,3.215v20.786
			c0,2.756,2.243,5,5,5h42c2.756,0,5-2.244,5-5V29.854c0.618-0.967,1-2.079,1-3.215V13.64z M20.799,6.559
			c0.943-1.816,1.622-2.919,3.091-2.919h10c1.409,0,2.011,0.966,2.953,2.673L38.17,8.64H19.612L20.799,6.559z M3.89,13.64
			c0-1.654,1.346-3,3-3h44c1.653,0,3,1.346,3,3v13c0,1.745-1.431,3.576-3.123,4L34.89,34.61v-1.968c0.003-1.631-1.336-2.977-3-3.002
			h-6.014c-1.649,0.023-2.989,1.37-2.986,3v1.97L7.013,30.64c-1.692-0.424-3.123-2.255-3.123-4V13.64z M32.89,32.64v4.998
			c-0.001,0.685-0.613,1.541-1.201,1.694c-1.829,0.457-3.78,0.454-5.588,0.003c-0.599-0.156-1.21-1.013-1.211-1.695v-5.002
			c-0.001-0.533,0.463-0.99,1-0.998h5.985C32.426,31.647,32.891,32.105,32.89,32.64z M49.891,53.641h-42c-1.654,0-3-1.347-3-3
			V31.857c0.509,0.32,1.056,0.576,1.638,0.722l16.119,4.03c0.082,0.021,0.162,0.012,0.243,0.012v1.021
			c0.003,1.612,1.217,3.24,2.717,3.632c1.073,0.267,2.177,0.402,3.283,0.402s2.21-0.136,3.293-0.405
			c1.49-0.389,2.704-2.017,2.707-3.631v-1c0.08,0,0.162-0.01,0.243-0.03l16.119-4.03c0.582-0.146,1.129-0.401,1.639-0.722v18.783
			C52.891,52.294,51.544,53.641,49.891,53.641z"/>
	</g>
	<g>
		<circle fill="#FFFFFF" cx="62.145" cy="55.64" r="17.583"/>
		<g>
			<g>
				<path fill="#FB0D1B" d="M43.375,59.725c0.493,2.274,1.39,4.399,2.611,6.297l-3.341,3.343l5.778,5.778l3.343-3.343
					c1.896,1.222,4.018,2.116,6.295,2.61v4.723h8.17V74.41c2.276-0.494,4.401-1.391,6.297-2.61l3.343,3.343l5.778-5.778
					l-3.344-3.343c1.223-1.896,2.119-4.021,2.612-6.297h4.724v-8.17h-4.724c-0.493-2.277-1.39-4.4-2.612-6.299l3.344-3.341
					l-5.778-5.779l-3.343,3.341c-1.896-1.22-4.021-2.117-6.297-2.61v-4.721h-8.17v4.721c-2.277,0.493-4.4,1.391-6.295,2.61
					l-3.343-3.341l-5.778,5.779l3.341,3.341c-1.221,1.896-2.118,4.021-2.611,6.299H38.65v8.17H43.375z M47.725,63.234
					c-0.572-1.079-1.022-2.231-1.342-3.438c-0.02-0.08-0.041-0.158-0.061-0.242c-0.039-0.16-0.077-0.318-0.111-0.48
					c-0.02-0.083-0.036-0.166-0.051-0.248c-0.042-0.209-0.081-0.421-0.114-0.637c-0.003-0.027-0.009-0.055-0.014-0.08
					c-0.037-0.237-0.066-0.479-0.091-0.721c-0.01-0.076-0.018-0.149-0.022-0.227c-0.017-0.182-0.03-0.363-0.043-0.545
					c-0.003-0.077-0.006-0.151-0.013-0.229c-0.01-0.246-0.018-0.5-0.018-0.752c0-0.253,0.008-0.504,0.018-0.754
					c0.006-0.074,0.01-0.148,0.013-0.226c0.013-0.183,0.026-0.363,0.043-0.544c0.005-0.076,0.013-0.15,0.022-0.228
					c0.023-0.241,0.054-0.479,0.091-0.719c0.005-0.026,0.011-0.058,0.014-0.085c0.034-0.213,0.072-0.424,0.114-0.633
					c0.016-0.084,0.035-0.168,0.051-0.251c0.034-0.16,0.072-0.319,0.111-0.476c0.02-0.087,0.041-0.168,0.061-0.248
					c0.059-0.221,0.12-0.439,0.186-0.656c0.002-0.002,0.002-0.006,0.006-0.01l0,0c0.298-0.965,0.688-1.893,1.15-2.771
					c0.084-0.16,0.174-0.319,0.262-0.478c0.021-0.035,0.043-0.074,0.064-0.109c0.088-0.155,0.182-0.309,0.275-0.459
					c0.015-0.021,0.027-0.043,0.042-0.063c0.308-0.486,0.639-0.953,0.995-1.402c0.019-0.023,0.037-0.047,0.056-0.07
					c0.11-0.139,0.226-0.277,0.34-0.41c0.025-0.029,0.052-0.063,0.079-0.091c0.503-0.58,1.049-1.127,1.627-1.629
					c0.031-0.024,0.061-0.05,0.092-0.077c0.135-0.116,0.272-0.23,0.411-0.343c0.023-0.017,0.044-0.034,0.065-0.054
					c0.451-0.355,0.92-0.691,1.41-0.998c0.02-0.014,0.037-0.024,0.057-0.037c0.152-0.094,0.307-0.188,0.463-0.278
					c0.036-0.022,0.07-0.04,0.105-0.062c0.158-0.09,0.32-0.18,0.479-0.265l0,0c0.882-0.463,1.806-0.853,2.771-1.15l0,0h0.002
					c0.221-0.068,0.443-0.13,0.664-0.191c0.08-0.021,0.164-0.038,0.244-0.06c0.158-0.04,0.318-0.077,0.481-0.11
					c0.081-0.019,0.164-0.034,0.245-0.052c0.211-0.044,0.424-0.082,0.638-0.114c0.027-0.006,0.052-0.01,0.081-0.015
					c0.239-0.037,0.479-0.064,0.721-0.091c0.076-0.01,0.15-0.016,0.229-0.021c0.179-0.019,0.361-0.032,0.543-0.043
					c0.075-0.003,0.148-0.007,0.227-0.011c0.25-0.013,0.5-0.021,0.752-0.021c0.254,0,0.504,0.008,0.754,0.021
					c0.076,0.004,0.15,0.008,0.225,0.011c0.184,0.011,0.365,0.024,0.546,0.043c0.074,0.006,0.151,0.012,0.228,0.021
					c0.24,0.026,0.482,0.054,0.72,0.091c0.026,0.005,0.052,0.009,0.077,0.015c0.216,0.032,0.429,0.07,0.64,0.114
					c0.083,0.018,0.165,0.033,0.248,0.052c0.161,0.033,0.321,0.07,0.481,0.11c0.08,0.021,0.162,0.039,0.242,0.06
					c0.225,0.062,0.448,0.123,0.668,0.191l0,0l0,0c0.965,0.298,1.889,0.688,2.769,1.15l0,0c0.163,0.086,0.325,0.177,0.485,0.27
					c0.032,0.017,0.064,0.035,0.099,0.057c0.157,0.09,0.313,0.187,0.467,0.28c0.021,0.011,0.036,0.021,0.054,0.033
					c0.488,0.308,0.959,0.645,1.41,1c0.021,0.019,0.047,0.037,0.07,0.054c0.137,0.112,0.275,0.228,0.41,0.343
					c0.031,0.027,0.061,0.053,0.091,0.077c0.58,0.502,1.123,1.049,1.627,1.629c0.026,0.028,0.052,0.062,0.079,0.091
					c0.115,0.133,0.229,0.271,0.34,0.41c0.02,0.023,0.036,0.047,0.057,0.072c0.354,0.449,0.688,0.916,0.996,1.402
					c0.012,0.02,0.025,0.038,0.038,0.058c0.095,0.155,0.187,0.309,0.277,0.466c0.021,0.033,0.042,0.068,0.062,0.104
					c0.09,0.159,0.18,0.317,0.266,0.481l0,0c0.464,0.881,0.854,1.805,1.152,2.771l0,0c0,0.002,0,0.006,0,0.008
					c0.068,0.218,0.129,0.438,0.188,0.658c0.019,0.08,0.041,0.16,0.06,0.246c0.041,0.156,0.077,0.315,0.111,0.477
					c0.018,0.083,0.037,0.167,0.055,0.251c0.04,0.209,0.077,0.42,0.111,0.633c0.006,0.028,0.01,0.058,0.016,0.085
					c0.036,0.238,0.064,0.477,0.09,0.719c0.008,0.076,0.017,0.15,0.021,0.228c0.019,0.181,0.03,0.36,0.044,0.544
					c0.003,0.076,0.008,0.15,0.012,0.226c0.012,0.25,0.018,0.501,0.018,0.755c0,0.252-0.006,0.504-0.018,0.752
					c-0.004,0.075-0.009,0.149-0.012,0.228c-0.014,0.182-0.025,0.364-0.044,0.545c-0.004,0.076-0.013,0.149-0.021,0.228
					c-0.025,0.24-0.055,0.481-0.093,0.721c-0.003,0.024-0.007,0.052-0.013,0.08c-0.034,0.215-0.071,0.427-0.111,0.636
					c-0.018,0.082-0.037,0.165-0.055,0.248c-0.034,0.161-0.07,0.321-0.111,0.481c-0.019,0.082-0.041,0.161-0.059,0.241
					c-0.32,1.207-0.771,2.356-1.344,3.438c-0.084,0.16-0.172,0.32-0.262,0.475c-0.021,0.039-0.045,0.077-0.064,0.115
					c-0.09,0.152-0.182,0.305-0.274,0.458c-0.015,0.021-0.028,0.043-0.042,0.063c-0.308,0.482-0.639,0.948-0.994,1.396
					c-0.021,0.023-0.037,0.048-0.058,0.074c-0.11,0.137-0.224,0.275-0.337,0.406c-0.027,0.032-0.057,0.063-0.082,0.098
					c-0.504,0.576-1.044,1.119-1.623,1.623c-0.032,0.025-0.063,0.053-0.096,0.082c-0.135,0.113-0.271,0.227-0.408,0.334
					c-0.024,0.023-0.051,0.041-0.073,0.063c-0.446,0.355-0.916,0.686-1.401,0.993c-0.021,0.013-0.039,0.026-0.06,0.037
					c-0.153,0.096-0.306,0.188-0.461,0.278c-0.038,0.021-0.074,0.043-0.11,0.063c-0.158,0.093-0.316,0.179-0.477,0.265
					c-0.881,0.465-1.807,0.853-2.771,1.149l0,0l0,0c-0.219,0.07-0.445,0.131-0.668,0.19c-0.078,0.021-0.158,0.039-0.238,0.061
					c-0.162,0.04-0.323,0.077-0.487,0.111c-0.081,0.017-0.161,0.033-0.24,0.051c-0.216,0.045-0.432,0.082-0.651,0.117
					c-0.023,0.005-0.045,0.007-0.067,0.01c-0.239,0.037-0.481,0.066-0.724,0.094c-0.074,0.008-0.149,0.014-0.225,0.021
					c-0.182,0.019-0.365,0.032-0.548,0.043c-0.074,0.004-0.149,0.01-0.226,0.012c-0.25,0.013-0.5,0.019-0.752,0.019
					c-0.254,0-0.504-0.006-0.754-0.019c-0.076-0.002-0.15-0.008-0.226-0.012c-0.183-0.011-0.364-0.024-0.546-0.043
					c-0.075-0.007-0.15-0.013-0.225-0.021c-0.244-0.025-0.484-0.057-0.724-0.094c-0.022-0.003-0.046-0.005-0.069-0.01
					c-0.217-0.035-0.436-0.072-0.648-0.117c-0.08-0.018-0.162-0.034-0.242-0.051c-0.164-0.034-0.324-0.071-0.486-0.111
					c-0.082-0.021-0.162-0.039-0.24-0.061c-0.223-0.061-0.442-0.12-0.664-0.188c0,0-0.002,0-0.004-0.002l0,0
					c-0.965-0.298-1.889-0.687-2.77-1.149l0,0c-0.16-0.086-0.32-0.175-0.48-0.265c-0.035-0.021-0.069-0.042-0.106-0.063
					c-0.155-0.088-0.308-0.182-0.46-0.276c-0.021-0.013-0.042-0.026-0.061-0.039c-0.487-0.308-0.952-0.638-1.4-0.993
					c-0.025-0.021-0.049-0.038-0.075-0.063c-0.137-0.107-0.274-0.221-0.407-0.336c-0.033-0.027-0.063-0.055-0.094-0.08
					c-0.58-0.504-1.123-1.047-1.626-1.627c-0.026-0.029-0.053-0.062-0.079-0.09c-0.115-0.135-0.229-0.273-0.34-0.41
					c-0.018-0.026-0.037-0.051-0.056-0.071c-0.357-0.451-0.69-0.92-0.998-1.407c-0.015-0.02-0.024-0.037-0.037-0.056
					c-0.095-0.154-0.188-0.308-0.279-0.468c-0.021-0.029-0.042-0.065-0.06-0.1C47.898,63.559,47.811,63.396,47.725,63.234
					L47.725,63.234z"/>
			</g>
			<g>
				<circle fill="#FB0D1B" cx="62.145" cy="55.639" r="10.509"/>
			</g>
		</g>
	</g>
</g>
</svg>
